PRÁCTICA 2: Detección de temas en política
…
Construimos la tabla con los términos de cada texto.

edsdfm2 <- tokens(eds_corpus,remove_punct = T,remove_numbers = T,
                 remove_url =T, remove_symbols = T) %>%
  tokens_remove(stopwords("es")) %>%
  tokens_ngrams(n=1:2) %>%
  dfm()

as.matrix(edsdfm2) %>% as.tibble() %>% select(tail(names(.),5))

Warning: `as.tibble()` was deprecated in tibble 2.0.0.
ℹ Please use `as_tibble()` instead.
ℹ The signature and semantics have changed, see `?as_tibble`.

# A tibble: 200 × 5
   reitera_moción moción_real real_sánchez sánchez_próximo `28m_elecciones`
            <dbl>       <dbl>        <dbl>           <dbl>            <dbl>
 1              0           0            0               0                0
 2              0           0            0               0                0
 3              0           0            0               0                0
 4              0           0            0               0                0
 5              0           0            0               0                0
 6              0           0            0               0                0
 7              0           0            0               0                0
 8              0           0            0               0                0
 9              0           0            0               0                0
10              0           0            0               0                0
# ℹ 190 more rows
…
